
state={
	id=306
	name="STATE_306" # Cundinamarca
	manpower = 4953049
	
	state_category = city
	
	history={
		1936.1.1 = {
			owner = COL
		}
		buildings = {
			infrastructure = 2
			arms_factory = 1
			industrial_complex = 5
			air_base = 2
		}
		add_core_of = COL
		victory_points = {
			10747 10
		}

	}

	provinces={
		2079 7936 7991 7993 10747 10790 10846 
	}

	local_supplies=4.0 
}
