
state={
	id=508
	name="STATE_508" # Tucuman
	manpower = 781311
	
	state_category = rural

	history={
		1936.1.1 = {
			owner = ARG
		}
		buildings = {
			infrastructure = 2
			industrial_complex = 1
		}
		add_core_of = ARG
		victory_points = {
			8216 1 
		}

	}

	provinces={
		2136 2224 8195 8216 8253 11001 12928 12978 
	}

	local_supplies=0.0 
}
